%YAML 1.1
%TAG !u! tag:unity3d.com,2011:
--- !u!114 &11400000
MonoBehaviour:
  m_ObjectHideFlags: 0
  m_CorrespondingSourceObject: {fileID: 0}
  m_PrefabInstance: {fileID: 0}
  m_PrefabAsset: {fileID: 0}
  m_GameObject: {fileID: 0}
  m_Enabled: 1
  m_EditorHideFlags: 0
  m_Script: {fileID: 11500000, guid: 5fe1cb6b12a74974bc081b7953384647, type: 3}
  m_Name: Tower_Archer
  m_EditorClassIdentifier: 
  towerPrefab: {fileID: 337511115811752484, guid: f2e915eccd474e04389cd8c32b85061e, type: 3}
  draggingPrefab: {fileID: 337511115811752484, guid: cf3dac513897aab4a8f994b062eb76a6, type: 3}
  cancelDraggingEffect: {fileID: 2980958914726741554, guid: 2ff6cd2fc4df6714b8aade2f5dc60d2f, type: 3}
  towerName: Arrow
  goldCost: 10
  dollarSymbol: $
